<?xml version="1.0" encoding="UTF-8" standalone="no"?>
<!-- Created with Inkscape (http://www.inkscape.org/) -->

<svg
   version="1.1"
   id="svg1"
   inkscape:version="1.3.2 (1:1.3.2+202311252150+091e20ef0f)"
   sodipodi:docname="elephant_surpris.svg"
   xmlns:inkscape="http://www.inkscape.org/namespaces/inkscape"
   xmlns:sodipodi="http://sodipodi.sourceforge.net/DTD/sodipodi-0.dtd"
   xmlns="http://www.w3.org/2000/svg"
   xmlns:svg="http://www.w3.org/2000/svg">
  <sodipodi:namedview
     id="namedview1"
     pagecolor="#ffffff"
     bordercolor="#000000"
     borderopacity="0.25"
     inkscape:showpageshadow="2"
     inkscape:pageopacity="0.0"
     inkscape:pagecheckerboard="0"
     inkscape:deskcolor="#d1d1d1"
     inkscape:document-units="mm"
     inkscape:zoom="8.2243424"
     inkscape:cx="130.95272"
     inkscape:cy="95.934722"
     inkscape:window-width="1850"
     inkscape:window-height="1016"
     inkscape:window-x="0"
     inkscape:window-y="0"
     inkscape:window-maximized="1"
     inkscape:current-layer="layer1"
     showgrid="false" />
  <defs
     id="defs1">
    <filter
       inkscape:collect="always"
       style="color-interpolation-filters:sRGB"
       id="filter18"
       x="-0.010512718"
       y="-0.030702181"
       width="1.0210254"
       height="1.0614044">
      <feGaussianBlur
         inkscape:collect="always"
         stdDeviation="0.89372992"
         id="feGaussianBlur18" />
    </filter>
    <filter
       inkscape:collect="always"
       style="color-interpolation-filters:sRGB"
       id="filter19"
       x="-0.010635303"
       y="-0.023544899"
       width="1.0212706"
       height="1.0470898">
      <feGaussianBlur
         inkscape:collect="always"
         stdDeviation="0.90194614"
         id="feGaussianBlur19" />
    </filter>
    <filter
       inkscape:collect="always"
       style="color-interpolation-filters:sRGB"
       id="filter22"
       x="-0.074544894"
       y="-0.19593303"
       width="1.1490898"
       height="1.3918661">
      <feGaussianBlur
         inkscape:collect="always"
         stdDeviation="1.550502"
         id="feGaussianBlur22" />
    </filter>
    <filter
       inkscape:collect="always"
       style="color-interpolation-filters:sRGB"
       id="filter23"
       x="-0.081112659"
       y="-0.16155124"
       width="1.1622253"
       height="1.3231025">
      <feGaussianBlur
         inkscape:collect="always"
         stdDeviation="1.4305091"
         id="feGaussianBlur23" />
    </filter>
    <filter
       inkscape:collect="always"
       style="color-interpolation-filters:sRGB"
       id="filter24"
       x="-0.11141015"
       y="-0.3001937"
       width="1.2228203"
       height="1.6003874">
      <feGaussianBlur
         inkscape:collect="always"
         stdDeviation="1.357319"
         id="feGaussianBlur24" />
    </filter>
    <filter
       inkscape:collect="always"
       style="color-interpolation-filters:sRGB"
       id="filter25"
       x="-0.020260654"
       y="-0.021442889"
       width="1.0405213"
       height="1.0428858">
      <feGaussianBlur
         inkscape:collect="always"
         stdDeviation="0.35720469"
         id="feGaussianBlur25" />
    </filter>
    <filter
       inkscape:collect="always"
       style="color-interpolation-filters:sRGB"
       id="filter26"
       x="-0.021825308"
       y="-0.047930849"
       width="1.0436506"
       height="1.0958617">
      <feGaussianBlur
         inkscape:collect="always"
         stdDeviation="0.37796389"
         id="feGaussianBlur26" />
    </filter>
    <filter
       inkscape:collect="always"
       style="color-interpolation-filters:sRGB"
       id="filter27"
       x="-0.034601316"
       y="-0.056095659"
       width="1.0692026"
       height="1.1121913">
      <feGaussianBlur
         inkscape:collect="always"
         stdDeviation="0.37796389"
         id="feGaussianBlur27" />
    </filter>
    <filter
       inkscape:collect="always"
       style="color-interpolation-filters:sRGB"
       id="filter28"
       x="-0.031795706"
       y="-0.062555357"
       width="1.0635914"
       height="1.1251107">
      <feGaussianBlur
         inkscape:collect="always"
         stdDeviation="0.37796389"
         id="feGaussianBlur28" />
    </filter>
  </defs>
  <g
     inkscape:label="Calque 1"
     inkscape:groupmode="layer"
     id="layer1">
    <rect
       style="fill:#a7fcff;fill-opacity:1;stroke:#ffffff;stroke-width:5.77991;stroke-linecap:round;stroke-linejoin:round;stroke-dasharray:none;stroke-opacity:1;paint-order:stroke markers fill"
       id="rect8"
       width="202.67926"
       height="117.35426"
       x="1.7014534"
       y="5.6980214" />
    <path
       style="mix-blend-mode:normal;fill:#195744;fill-opacity:1;stroke:none;stroke-width:3.65343;stroke-linecap:round;stroke-linejoin:round;stroke-dasharray:none;stroke-opacity:1;paint-order:stroke markers fill;filter:url(#filter18)"
       d="m 0.48663331,101.44445 c 0,0 21.14410769,-31.197636 43.41592069,-32.805121 22.171896,-1.600273 94.324166,37.677991 94.324166,37.677991 0,0 29.35551,-32.124514 40.79203,-33.406317 11.43649,-1.281803 25.42944,8.077875 25.42944,8.077875 L 203.61902,135.59271 0.41419851,138.4549 Z"
       id="path16"
       sodipodi:nodetypes="cscscccc" />
    <path
       style="fill:#4e9641;fill-opacity:1;stroke:none;stroke-width:3.66677;stroke-linecap:round;stroke-linejoin:round;stroke-dasharray:none;stroke-opacity:1;paint-order:stroke markers fill;filter:url(#filter19)"
       d="m 0.69066597,129.89048 c 0,0 123.69533403,-12.96216 140.65787403,-10.40117 16.96255,2.56098 62.37746,-4.51202 62.37746,-4.51202 l 0.50101,91.299 -201.6888787,0.63899 z"
       id="path11"
       sodipodi:nodetypes="cscccc" />
    <path
       style="fill:none;fill-opacity:1;stroke:#ffffff;stroke-width:7.865;stroke-linecap:round;stroke-linejoin:round;stroke-dasharray:none;stroke-opacity:1;paint-order:stroke markers fill"
       d="m 144.35985,100.61161 c 0,0 22.06004,2.04733 30.63325,-3.787566"
       id="path8-1"
       sodipodi:nodetypes="cc" />
    <path
       style="fill:none;fill-opacity:1;stroke:#6c9393;stroke-width:2.96499974;stroke-linecap:round;stroke-linejoin:round;stroke-dasharray:none;stroke-opacity:1;paint-order:stroke markers fill"
       d="M 41.62487,92.343319 C 29.181442,94.909192 23.553915,102.9936 22.385613,114.55832"
       id="path4"
       sodipodi:nodetypes="cc" />
    <path
       style="fill:none;fill-opacity:1;stroke:#5c7d7d;stroke-width:17.865;stroke-linecap:round;stroke-linejoin:round;stroke-dasharray:none;stroke-opacity:1;paint-order:stroke markers fill"
       d="m 116.14214,120.2719 c 0,0 15.46875,28.5262 14.12518,53.26624"
       id="path3-5" />
    <path
       style="fill:none;fill-opacity:1;stroke:#5f8181;stroke-width:17.865;stroke-linecap:round;stroke-linejoin:round;stroke-dasharray:none;stroke-opacity:1;paint-order:stroke markers fill"
       d="m 55.277964,112.56766 c 0,0 15.46875,28.5262 14.12518,53.26624"
       id="path3-5-2" />
    <path
       style="fill:#5ca3a3;fill-opacity:1;stroke:#5ca3a3;stroke-width:43.765;stroke-linecap:round;stroke-linejoin:round;stroke-dasharray:none;stroke-opacity:1;paint-order:stroke markers fill"
       d="m 106.19125,88.874224 -51.214631,15.282506 0.985279,18.09758 59.038582,3.77761 z"
       id="path1"
       sodipodi:nodetypes="ccccc" />
    <path
       style="fill:none;fill-opacity:1;stroke:#5ca3a3;stroke-width:14.565;stroke-linecap:round;stroke-linejoin:round;stroke-dasharray:none;stroke-opacity:1;paint-order:stroke markers fill"
       d="m 157.77415,91.466092 c 2.81391,40.211408 6.38891,81.934638 28.32856,66.072038"
       id="path2"
       sodipodi:nodetypes="cc" />
    <path
       style="fill:none;fill-opacity:1;stroke:#5ca3a3;stroke-width:17.86500106;stroke-linecap:round;stroke-linejoin:round;stroke-dasharray:none;stroke-opacity:1;paint-order:stroke markers fill"
       d="m 106.94622,130.44791 c 0,0 15.46875,28.5262 14.12518,53.26624"
       id="path3" />
    <path
       style="fill:none;fill-opacity:1;stroke:#5ca3a3;stroke-width:17.865;stroke-linecap:round;stroke-linejoin:round;stroke-dasharray:none;stroke-opacity:1;paint-order:stroke markers fill"
       d="m 46.333696,124.37727 c 0,0 0.891444,26.16323 5.216431,49.51137"
       id="path3-9"
       sodipodi:nodetypes="cc" />
    <path
       style="fill:none;fill-opacity:1;stroke:#6b5433;stroke-width:5.765;stroke-linecap:round;stroke-linejoin:round;stroke-dasharray:none;stroke-opacity:1;paint-order:stroke markers fill"
       d="m 22.259076,115.4128 0.32274,4.23116"
       id="path5"
       sodipodi:nodetypes="cc" />
    <path
       style="fill:none;fill-opacity:1;stroke:#5ca3a3;stroke-width:49.965;stroke-linecap:round;stroke-linejoin:round;stroke-dasharray:none;stroke-opacity:1;paint-order:stroke markers fill"
       d="m 137.21549,74.009722 c 3.97951,6.977992 2.31747,19.866247 2.31747,19.866247"
       id="path6"
       sodipodi:nodetypes="cc" />
    <path
       style="fill:#49b56c;fill-opacity:1;stroke:#547373;stroke-width:42.265;stroke-linecap:round;stroke-linejoin:round;stroke-dasharray:none;stroke-opacity:1;paint-order:stroke markers fill"
       d="m 120.52094,75.231316 -6.07375,22.497925"
       id="path6-0"
       sodipodi:nodetypes="cc" />
    <ellipse
       style="fill:#ffffff;fill-opacity:1;stroke:none;stroke-width:13.1346;stroke-linecap:round;stroke-linejoin:round;stroke-dasharray:none;stroke-opacity:1;paint-order:stroke markers fill"
       id="path7"
       cx="147.19554"
       cy="79.391083"
       rx="3.3048816"
       ry="5.088479" />
    <ellipse
       style="fill:#5b62b0;fill-opacity:1;stroke:none;stroke-width:9.57376;stroke-linecap:round;stroke-linejoin:round;stroke-dasharray:none;stroke-opacity:1;paint-order:stroke markers fill"
       id="path7-0"
       cx="147.77725"
       cy="80.385231"
       rx="2.8470666"
       ry="3.1382005" />
    <ellipse
       style="fill:#280b0b;fill-opacity:1;stroke:none;stroke-width:5.55945;stroke-linecap:round;stroke-linejoin:round;stroke-dasharray:none;stroke-opacity:1;paint-order:stroke markers fill"
       id="path7-0-2"
       cx="148.14032"
       cy="81.115746"
       rx="1.6602674"
       ry="1.8146753" />
    <path
       style="fill:none;fill-opacity:1;stroke:#ffffff;stroke-width:7.865;stroke-linecap:round;stroke-linejoin:round;stroke-dasharray:none;stroke-opacity:1;paint-order:stroke markers fill"
       d="m 149.13125,109.00493 c 0,0 21.25959,2.39139 29.8328,-3.44351"
       id="path8"
       sodipodi:nodetypes="cc" />
    <path
       style="fill:#547373;fill-opacity:1;stroke:#5ca3a3;stroke-width:3.665;stroke-linecap:round;stroke-linejoin:round;stroke-dasharray:none;stroke-opacity:1;paint-order:stroke markers fill"
       d="m 145.79926,70.725065 7.43999,0.912341"
       id="path10"
       sodipodi:nodetypes="cc" />
    <path
       style="fill:#255719;fill-opacity:1;stroke:none;stroke-width:3.72323;stroke-linecap:round;stroke-linejoin:round;stroke-dasharray:none;stroke-opacity:1;paint-order:stroke markers fill;filter:url(#filter25)"
       d="m 162.64106,206.21356 c -1.43697,-8.28699 -1.03649,-16.28846 5.84649,-17.5773 6.88298,-1.28884 11.91915,4.8427 11.91915,4.8427 0,0 -1.58224,-14.10788 7.52521,-16.56794 9.10744,-2.46005 10.67723,4.4456 10.67723,4.4456 0,0 2.06054,-14.01137 5.16172,-14.7714 0.6775,12.71448 0.48451,39.98021 0.48451,39.98021 z"
       id="path12"
       sodipodi:nodetypes="cscscccc" />
    <path
       style="mix-blend-mode:normal;fill:#255719;fill-opacity:1;stroke:none;stroke-width:3.66501;stroke-linecap:round;stroke-linejoin:round;stroke-dasharray:none;stroke-opacity:1;paint-order:stroke markers fill;filter:url(#filter28)"
       d="m 27.234558,194.79594 8.241747,-12.55866 -1.991572,13.27748 6.321555,-4.99049 0.772096,5.71132 -18.004564,0.50266 -10.524866,-14.26873 11.698091,7.94316 z"
       id="path13" />
    <path
       style="fill:#255719;fill-opacity:1;stroke:none;stroke-width:3.66501;stroke-linecap:round;stroke-linejoin:round;stroke-dasharray:none;stroke-opacity:1;paint-order:stroke markers fill;filter:url(#filter27)"
       d="m 83.197604,177.59767 4.926147,-13.02011 -1.971466,12.1143 6.4432,-3.82933 -2.330368,6.25219 11.611633,-1.42557 -7.043385,3.05924 -14.77241,-0.22922 -4.400357,-3.55486 4.497875,0.77209 -0.08546,-7.40128 z"
       id="path14" />
    <path
       style="fill:#255719;fill-opacity:1;stroke:none;stroke-width:3.66501;stroke-linecap:round;stroke-linejoin:round;stroke-dasharray:none;stroke-opacity:1;paint-order:stroke markers fill;filter:url(#filter26)"
       d="m 135.51329,194.44107 6.66136,-14.30091 -2.40879,11.47089 8.39757,-4.55619 -4.74418,5.9908 7.05244,1.22048 -10.34793,2.49726 12.77581,0.30863 -12.10223,1.99359 -22.32651,-0.55595 c 0,0 -9.06713,-3.71472 -6.75687,-3.71472 2.31027,0 17.13194,2.60884 17.13194,2.60884 l -3.98917,-8.30206 7.07153,7.39626 2.25999,-10.0041 z"
       id="path15" />
    <path
       style="mix-blend-mode:normal;fill:#ffffff;fill-opacity:1;stroke:none;stroke-width:18.0004;stroke-linecap:round;stroke-linejoin:round;stroke-dasharray:none;stroke-opacity:1;paint-order:stroke markers fill;filter:url(#filter22)"
       d="m 193.43185,29.399864 c -4.92158,2.944102 -17.01371,-1.850439 -17.01371,-1.850439 0,0 -2.56537,5.273716 -7.20989,3.852931 -4.64452,-1.420785 -9.14472,-6.883522 -9.14472,-6.883522 0,0 -22.34048,2.706956 -11.08573,-3.606717 11.25475,-6.313672 20.39947,-1.275707 20.39947,-1.275707 0,0 1.72954,-5.090276 7.25388,-6.739142 6.78772,-2.025948 8.596,9.222204 8.596,9.222204 7.52409,-3.462112 14.1495,3.724207 8.2047,7.280392 z"
       id="path18"
       sodipodi:nodetypes="scscscscs"
       transform="matrix(1.0945722,0,0,1.175361,-13.43754,-1.5663093)" />
    <path
       style="fill:#ffffff;fill-opacity:1;stroke:none;stroke-width:24.665;stroke-linecap:round;stroke-linejoin:round;stroke-dasharray:none;stroke-opacity:1;paint-order:stroke markers fill;filter:url(#filter23)"
       d="m 18.687189,34.979668 c 0,0 8.232699,-5.281031 13.780145,-0.530817 5.547444,4.750213 2.838063,9.990025 2.838063,9.990025 0,0 12.068056,-3.826309 15.574669,2.214756 3.506613,6.041067 -13.434308,6.608074 -13.434308,6.608074 0,0 -27.8297169,1.433611 -28.3605349,-0.778129 -0.530817,-2.211739 2.9396029,-10.01717 7.0373539,-8.799708 4.09775,1.217462 -5.648984,-5.361458 2.564612,-8.704201 z"
       id="path22"
       transform="matrix(0.86589529,0,0,0.89334541,7.3477556,3.0965846)" />
    <path
       style="mix-blend-mode:normal;fill:#ffffff;fill-opacity:1;stroke:none;stroke-width:24.665;stroke-linecap:round;stroke-linejoin:round;stroke-dasharray:none;stroke-opacity:1;paint-order:stroke markers fill;filter:url(#filter24)"
       d="m 101.54398,25.544589 c -0.33287,3.219121 -10.23432,-3.960021 -13.263397,4.323951 -1.728727,4.727753 11.236642,3.035108 14.823687,1.027452 2.48346,-3.521059 12.24487,2.447226 13.85654,-0.975176 3.28998,-6.986335 -14.70704,-11.240304 -15.41683,-4.376227 z"
       id="path23"
       sodipodi:nodetypes="sssss"
       transform="matrix(0.90791443,0,0,1,-0.9184958,-2.5817034)" />
    <g
       id="point-of-questionning">
      <g
         id="g19"
         transform="matrix(0.94409421,-0.16186852,0.11347458,0.66183772,2.1849836,37.254773)">
        <path
           style="fill:none;stroke:#ff9c13;stroke-width:4.11379;stroke-linecap:round;stroke-linejoin:round;stroke-dasharray:none;stroke-opacity:1;paint-order:stroke fill markers"
           d="m 120.93615,21.174374 c 0,0 -1.1383,-4.824597 5.30203,-4.843671 5.09077,-0.01508 5.85225,5.591767 2.04008,8.644086 -2.76629,2.214902 -3.38703,3.526668 -3.57028,5.178642 -0.18324,1.651972 0.15176,3.700641 0.15176,3.700641"
           id="path17"
           sodipodi:nodetypes="csssc" />
        <ellipse
           style="fill:#ff9c13;fill-opacity:1;stroke:none;stroke-width:4.45216;stroke-linecap:round;stroke-linejoin:round;stroke-dasharray:none;stroke-opacity:1;paint-order:stroke fill markers"
           id="path19"
           cy="38.621571"
           cx="125.59464"
           rx="2.7211895"
           ry="2.0646396" />
      </g>
      <g
         id="g19-2"
         transform="matrix(1.0028664,0.50370891,-0.5576184,0.96758232,53.838563,-57.557483)">
        <path
           style="fill:none;stroke:#ff9c13;stroke-width:4.11379;stroke-linecap:round;stroke-linejoin:round;stroke-dasharray:none;stroke-opacity:1;paint-order:stroke fill markers"
           d="m 120.93615,21.174374 c 0,0 -1.1383,-4.824597 5.30203,-4.843671 5.09077,-0.01508 5.85225,5.591767 2.04008,8.644086 -2.76629,2.214902 -3.38703,3.526668 -3.57028,5.178642 -0.18324,1.651972 0.15176,3.700641 0.15176,3.700641"
           id="path17-9"
           sodipodi:nodetypes="csssc" />
        <ellipse
           style="fill:#ff9c13;fill-opacity:1;stroke:none;stroke-width:4.45216;stroke-linecap:round;stroke-linejoin:round;stroke-dasharray:none;stroke-opacity:1;paint-order:stroke fill markers"
           id="path19-1"
           cy="38.621571"
           cx="125.59464"
           rx="2.7211895"
           ry="2.0646396" />
      </g>
      <g
         id="g19-2-9"
         transform="matrix(0.26378006,0.89462468,-0.65693207,0.31182476,169.84536,-59.019011)">
        <path
           style="fill:none;stroke:#ff9c13;stroke-width:4.11379;stroke-linecap:round;stroke-linejoin:round;stroke-dasharray:none;stroke-opacity:1;paint-order:stroke fill markers"
           d="m 120.93615,21.174374 c 0,0 -1.1383,-4.824597 5.30203,-4.843671 5.09077,-0.01508 5.85225,5.591767 2.04008,8.644086 -2.76629,2.214902 -3.38703,3.526668 -3.57028,5.178642 -0.18324,1.651972 0.15176,3.700641 0.15176,3.700641"
           id="path17-9-3"
           sodipodi:nodetypes="csssc" />
        <ellipse
           style="fill:#ff9c13;fill-opacity:1;stroke:none;stroke-width:4.45216;stroke-linecap:round;stroke-linejoin:round;stroke-dasharray:none;stroke-opacity:1;paint-order:stroke fill markers"
           id="path19-1-6"
           cy="38.621571"
           cx="125.59464"
           rx="2.7211895"
           ry="2.0646396" />
      </g>
    </g>
    <path
       style="fill:none;fill-opacity:1;stroke:#435b5b;stroke-width:1.865;stroke-linecap:round;stroke-linejoin:round;stroke-dasharray:none;stroke-opacity:1;paint-order:stroke markers fill"
       d="m 144.62685,66.128811 c 0,0 2.84563,-5.047686 6.00187,-0.221525"
       id="path9"
       sodipodi:nodetypes="cc" />
  </g>
</svg>
